<svg width="88" height="88" viewBox="0 0 88 88" version="1.1" xmlns="http://www.w3.org/2000/svg" xmlns:xlink="http://www.w3.org/1999/xlink">
<title>noun_641778_cc</title>
<desc>Created using Figma</desc>
<g id="Canvas" transform="translate(-2192 -1022)">
<g id="noun_641778_cc">
<g id="Group">
<g id="Group">
<g id="Vector">
<use xlink:href="#path0_fill" transform="translate(2192 1022)"/>
</g>
<g id="Vector">
<use xlink:href="#path1_fill" transform="translate(2204.69 1046.26)"/>
</g>
<g id="Vector">
<use xlink:href="#path2_fill" transform="matrix(0.4837 -0.8752 0.8752 0.4837 2208.04 1052.55)"/>
</g>
<g id="Vector">
<use xlink:href="#path3_fill" transform="translate(2208.69 1048.18)"/>
</g>
<g id="Vector">
<use xlink:href="#path4_fill" transform="translate(2204.79 1080.19)"/>
</g>
<g id="Vector">
<use xlink:href="#path5_fill" transform="matrix(0.9019 -0.432 0.432 0.9019 2208.03 1080.63)"/>
</g>
<g id="Vector">
<use xlink:href="#path6_fill" transform="translate(2208.6 1078.73)"/>
</g>
<g id="Vector">
<use xlink:href="#path7_fill" transform="translate(2213.46 1039.71)"/>
</g>
<g id="Vector">
<use xlink:href="#path8_fill" transform="matrix(0.6105 -0.792 0.792 0.6105 2216 1041.84)"/>
</g>
<g id="Vector">
<use xlink:href="#path9_fill" transform="translate(2216.77 1038.07)"/>
</g>
<g id="Vector">
<use xlink:href="#path10_fill" transform="matrix(0.722 -0.6919 0.6919 0.722 2215.74 1092.42)"/>
</g>
<g id="Vector">
<use xlink:href="#path11_fill" transform="translate(2216.55 1089.26)"/>
</g>
<g id="Vector">
<use xlink:href="#path12_fill" transform="translate(2193.91 1065.14)"/>
</g>
<g id="Vector">
<use xlink:href="#path13_fill" transform="translate(2198.2 1064.18)"/>
</g>
<g id="Vector">
<use xlink:href="#path14_fill" transform="translate(2197.82 1063.8)"/>
</g>
<g id="Vector">
<use xlink:href="#path15_fill" transform="translate(2228.21 1065.14)"/>
</g>
<g id="Vector">
<use xlink:href="#path16_fill" transform="translate(2225.51 1064.18)"/>
</g>
<g id="Vector">
<use xlink:href="#path17_fill" transform="translate(2225.13 1063.8)"/>
</g>
<g id="Vector">
<use xlink:href="#path18_fill" transform="translate(2233.74 1022)"/>
</g>
<g id="Vector">
<use xlink:href="#path19_fill" transform="translate(2258.3 1046.26)"/>
</g>
<g id="Vector">
<use xlink:href="#path20_fill" transform="matrix(0.8752 -0.4837 0.4837 0.8752 2255.47 1050.3)"/>
</g>
<g id="Vector">
<use xlink:href="#path21_fill" transform="translate(2256.12 1048.18)"/>
</g>
<g id="Vector">
<use xlink:href="#path22_fill" transform="translate(2258.48 1080.19)"/>
</g>
<g id="Vector">
<use xlink:href="#path23_fill" transform="matrix(0.432 -0.9019 0.9019 0.432 2255.63 1083.32)"/>
</g>
<g id="Vector">
<use xlink:href="#path24_fill" transform="translate(2256.2 1078.73)"/>
</g>
<g id="Vector">
<use xlink:href="#path25_fill" transform="translate(2245.7 1039.71)"/>
</g>
<g id="Vector">
<use xlink:href="#path26_fill" transform="matrix(0.792 -0.6105 0.6105 0.792 2247.26 1040.8)"/>
</g>
<g id="Vector">
<use xlink:href="#path27_fill" transform="translate(2248.03 1038.07)"/>
</g>
<g id="Vector">
<use xlink:href="#path28_fill" transform="matrix(0.6919 -0.722 0.722 0.6919 2247.46 1092.59)"/>
</g>
<g id="Vector">
<use xlink:href="#path29_fill" transform="translate(2248.26 1089.26)"/>
</g>
<g id="Vector">
<use xlink:href="#path30_fill" transform="translate(2270.07 1065.14)"/>
</g>
<g id="Vector">
<use xlink:href="#path31_fill" transform="translate(2267.37 1064.18)"/>
</g>
<g id="Vector">
<use xlink:href="#path32_fill" transform="translate(2266.99 1063.8)"/>
</g>
<g id="Vector">
<use xlink:href="#path33_fill" transform="translate(2235.77 1065.14)"/>
</g>
<g id="Vector">
<use xlink:href="#path34_fill" transform="translate(2240.06 1064.18)"/>
</g>
<g id="Vector">
<use xlink:href="#path35_fill" transform="translate(2239.68 1063.8)"/>
</g>
</g>
</g>
</g>
</g>
<defs>
<path id="path0_fill" d="M 43.65 7.775L 44.602 6.124L 33.977 1.83105e-07L 11.708 12.857L 11.708 24.83L -9.53674e-08 31.59L -9.53674e-08 57.304L 11.708 64.064L 11.708 74.476L 33.979 87.334L 45.556 80.637L 45.556 50.664L 45.518 43.668L 45.556 38.078L 45.556 6.674L 44.602 6.124L 43.65 7.775L 41.744 7.775L 41.744 38.065L 41.744 38.052L 41.707 43.662L 41.744 50.693L 41.744 78.438L 33.977 82.932L 15.519 72.275L 15.519 61.863L 3.812 55.104L 3.812 33.79L 15.519 27.031L 15.519 15.058L 33.979 4.4L 42.698 9.426L 43.65 7.775L 41.744 7.775L 43.65 7.775Z"/>
<path id="path1_fill" d="M -1.83105e-07 3.335L 6.464 6.908L 8.308 3.572L 1.844 6.71387e-07"/>
<path id="path2_fill" d="M 2.866 5.732C 4.44885 5.732 5.732 4.44885 5.732 2.866C 5.732 1.28315 4.44885 0 2.866 0C 1.28315 0 0 1.28315 0 2.866C 0 4.44885 1.28315 5.732 2.866 5.732Z"/>
<path id="path3_fill" d="M 1.67564 6.08864C 0.108644 5.22264 -0.461356 3.24264 0.404644 1.67564C 1.27064 0.108644 3.25064 -0.461356 4.81764 0.404644C 6.38464 1.27064 6.95464 3.25064 6.08864 4.81764C 5.22264 6.38364 3.24264 6.95464 1.67564 6.08864C 0.109644 5.22264 3.24264 6.95464 1.67564 6.08864ZM 4.44864 1.07164C 3.24964 0.408644 1.73464 0.844644 1.07164 2.04464C 0.408644 3.24464 0.844643 4.75864 2.04464 5.42164C 3.24464 6.08464 4.75864 5.64864 5.42164 4.44864C 6.08464 3.24864 5.64864 1.73464 4.44864 1.07164C 3.24964 0.408644 5.64864 1.73464 4.44864 1.07164Z"/>
<path id="path4_fill" d="M 1.647 6.494L 8.029 3.437L 6.383 3.72314e-06L -6.10352e-07 3.057"/>
<path id="path5_fill" d="M 2.866 5.732C 4.44885 5.732 5.732 4.44885 5.732 2.866C 5.732 1.28315 4.44885 0 2.866 0C 1.28315 0 0 1.28315 0 2.866C 0 4.44885 1.28315 5.732 2.866 5.732Z"/>
<path id="path6_fill" d="M 4.64918 6.17518C 3.03418 6.94818 1.09118 6.26418 0.318182 4.64918C -0.454818 3.03418 0.229183 1.09118 1.84418 0.318182C 3.45918 -0.454818 5.40218 0.22918 6.17518 1.84418C 6.94918 3.45818 6.26418 5.40118 4.64918 6.17518C 3.03518 6.94818 6.26418 5.40118 4.64918 6.17518ZM 2.17318 1.00518C 0.937182 1.59718 0.413182 3.08419 1.00618 4.31919C 1.59818 5.55519 3.08518 6.07919 4.32018 5.48619C 5.55618 4.89419 6.08018 3.40718 5.48718 2.17118C 4.89618 0.937183 3.40918 0.413183 2.17318 1.00518C 0.937182 1.59818 3.40918 0.413183 2.17318 1.00518Z"/>
<path id="path7_fill" d="M 5.267 3.019L 8.325 5.377L 8.325 15.002L 2.74658e-07 20.595L 2.74658e-07 34.547L 8.325 38.32L 8.325 48.246L 4.896 51.533L 7.533 54.284L 12.137 49.872L 12.137 35.862L 3.811 32.09L 3.811 22.626L 12.137 17.033L 12.137 3.502L 7.594 -7.32422e-07L 5.267 3.019Z"/>
<path id="path8_fill" d="M 2.866 5.732C 4.44885 5.732 5.732 4.44885 5.732 2.866C 5.732 1.28315 4.44885 0 2.866 0C 1.28315 0 0 1.28315 0 2.866C 0 4.44885 1.28315 5.732 2.866 5.732Z"/>
<path id="path9_fill" d="M 1.26317 5.81717C 2.68117 6.91017 4.72417 6.64617 5.81717 5.22817C 6.91017 3.81017 6.64617 1.76717 5.22817 0.674167C 3.81017 -0.418833 1.76717 -0.154832 0.674168 1.26317C -0.418833 2.68117 -0.154832 4.72317 1.26317 5.81717C 2.68117 6.90917 -0.154832 4.72317 1.26317 5.81717ZM 4.76317 1.27717C 5.84817 2.11417 6.05117 3.67717 5.21417 4.76217C 4.37717 5.84717 2.81417 6.05017 1.72917 5.21317C 0.644168 4.37617 0.441168 2.81317 1.27817 1.72817C 2.11417 0.642168 3.67717 0.440168 4.76317 1.27717C 5.84817 2.11317 3.67717 0.440168 4.76317 1.27717Z"/>
<path id="path10_fill" d="M 2.866 5.732C 4.44885 5.732 5.732 4.44884 5.732 2.866C 5.732 1.28315 4.44885 0 2.866 0C 1.28315 0 0 1.28315 0 2.866C 0 4.44884 1.28315 5.732 2.866 5.732Z"/>
<path id="path11_fill" d="M 0.999246 0.901249C 2.29225 -0.337751 4.35125 -0.293751 5.59025 0.999249C 6.82925 2.29225 6.78525 4.35124 5.49225 5.59024C 4.19925 6.82924 2.14025 6.78524 0.901246 5.49225C -0.337754 4.19925 -0.293754 2.14025 0.999246 0.901249C 2.29125 -0.337751 -0.293754 2.14025 0.999246 0.901249ZM 4.96525 5.03925C 5.95425 4.09125 5.98825 2.51525 5.04025 1.52625C 4.09225 0.537249 2.51625 0.503245 1.52725 1.45124C 0.537246 2.39924 0.504245 3.97525 1.45224 4.96425C 2.40024 5.95425 3.97525 5.98725 4.96525 5.03925C 5.95425 4.09125 3.97525 5.98725 4.96525 5.03925Z"/>
<path id="path12_fill" d="M -4.34875e-07 3.811L 7.32 3.811L 7.32 1.2207e-07L -4.34875e-07 1.2207e-07"/>
<path id="path13_fill" d="M 2.866 5.732C 4.44885 5.732 5.732 4.44885 5.732 2.866C 5.732 1.28315 4.44885 0 2.866 0C 1.28315 0 0 1.28315 0 2.866C 0 4.44885 1.28315 5.732 2.866 5.732Z"/>
<path id="path14_fill" d="M 3.247 6.494C 1.457 6.494 3.66211e-07 5.037 3.66211e-07 3.247C 3.66211e-07 1.457 1.457 5.18799e-07 3.247 5.18799e-07C 5.037 5.18799e-07 6.494 1.457 6.494 3.247C 6.494 5.037 5.038 6.494 3.247 6.494C 1.457 6.494 5.038 6.494 3.247 6.494ZM 3.247 0.762002C 1.877 0.762002 0.762 1.876 0.762 3.247C 0.762 4.617 1.876 5.732 3.247 5.732C 4.617 5.732 5.732 4.618 5.732 3.247C 5.732 1.876 4.618 0.762002 3.247 0.762002C 1.877 0.762002 4.618 0.762002 3.247 0.762002Z"/>
<path id="path15_fill" d="M 8.23975e-07 3.811L 7.32 3.811L 7.32 1.2207e-07L 8.23975e-07 1.2207e-07"/>
<path id="path16_fill" d="M 2.866 5.732C 4.44885 5.732 5.732 4.44885 5.732 2.866C 5.732 1.28315 4.44885 0 2.866 0C 1.28315 0 0 1.28315 0 2.866C 0 4.44885 1.28315 5.732 2.866 5.732Z"/>
<path id="path17_fill" d="M 3.247 6.494C 5.037 6.494 6.494 5.037 6.494 3.247C 6.494 1.457 5.037 5.18799e-07 3.247 5.18799e-07C 1.457 5.18799e-07 1.19019e-06 1.457 1.19019e-06 3.247C 1.19019e-06 5.037 1.456 6.494 3.247 6.494C 5.037 6.494 1.456 6.494 3.247 6.494ZM 3.247 0.762002C 4.617 0.762002 5.732 1.876 5.732 3.247C 5.732 4.617 4.618 5.732 3.247 5.732C 1.877 5.732 0.761998 4.618 0.761998 3.247C 0.761998 1.876 1.876 0.762002 3.247 0.762002C 4.617 0.762002 1.876 0.762002 3.247 0.762002Z"/>
<path id="path18_fill" d="M 1.906 7.775L 2.858 9.426L 11.577 4.4L 30.037 15.058L 30.037 27.031L 41.744 33.79L 41.744 55.104L 30.037 61.863L 30.037 72.275L 11.579 82.932L 3.812 78.438L 3.812 50.683L 3.85 43.66L 3.812 38.052L 3.812 38.065L 3.812 7.775L 1.906 7.775L 2.858 9.426L 1.906 7.775L 1.77002e-06 7.775L 1.77002e-06 38.081L 0.038 43.67L 1.77002e-06 50.673L 1.77002e-06 80.637L 11.577 87.334L 33.848 74.476L 33.848 64.064L 45.556 57.305L 45.556 31.59L 33.848 24.83L 33.848 12.857L 11.579 1.83105e-07L 1.77002e-06 6.674L 1.77002e-06 7.775L 1.906 7.775Z"/>
<path id="path19_fill" d="M 6.465 6.71387e-07L 1.52588e-06 3.572L 1.844 6.908L 8.308 3.335"/>
<path id="path20_fill" d="M 2.866 5.732C 4.44884 5.732 5.732 4.44885 5.732 2.866C 5.732 1.28315 4.44884 0 2.866 0C 1.28315 0 0 1.28315 0 2.866C 0 4.44885 1.28315 5.732 2.866 5.732Z"/>
<path id="path21_fill" d="M 1.67564 0.404644C 3.24264 -0.461356 5.22264 0.108644 6.08864 1.67564C 6.95464 3.24264 6.38465 5.22264 4.81765 6.08864C 3.25065 6.95464 1.27065 6.38464 0.404645 4.81764C -0.461355 3.24964 0.108642 1.27064 1.67564 0.404644C 3.24264 -0.461356 0.108642 1.27064 1.67564 0.404644ZM 4.44864 5.42064C 5.64764 4.75764 6.08464 3.24364 5.42164 2.04364C 4.75864 0.843644 3.24464 0.407645 2.04464 1.07064C 0.844645 1.73364 0.408645 3.24764 1.07165 4.44764C 1.73465 5.64764 3.24964 6.08364 4.44864 5.42064C 5.64764 4.75864 3.24964 6.08364 4.44864 5.42064Z"/>
<path id="path22_fill" d="M 8.029 3.057L 1.646 3.72314e-06L 1.28174e-06 3.437L 6.382 6.494"/>
<path id="path23_fill" d="M 2.866 5.732C 4.44885 5.732 5.732 4.44885 5.732 2.866C 5.732 1.28315 4.44885 0 2.866 0C 1.28315 0 -2.44141e-06 1.28315 -2.44141e-06 2.866C -2.44141e-06 4.44885 1.28315 5.732 2.866 5.732Z"/>
<path id="path24_fill" d="M 4.64918 0.318182C 6.26418 1.09118 6.94818 3.03518 6.17518 4.64918C 5.40218 6.26418 3.45818 6.94818 1.84418 6.17518C 0.229185 5.40218 -0.454816 3.45818 0.318184 1.84418C 1.09218 0.22918 3.03518 -0.454818 4.64918 0.318182C 6.26418 1.09118 3.03518 -0.454818 4.64918 0.318182ZM 2.17318 5.48719C 3.40918 6.07919 4.89518 5.55519 5.48718 4.32019C 6.07918 3.08419 5.55518 1.59818 4.32018 1.00618C 3.08418 0.414182 1.59818 0.937182 1.00518 2.17318C 0.41318 3.40918 0.937179 4.89518 2.17318 5.48719C 3.40918 6.07919 0.937179 4.89518 2.17318 5.48719Z"/>
<path id="path25_fill" d="M 4.543 -7.32422e-07L -1.31226e-06 3.502L -1.31226e-06 17.033L 8.326 22.626L 8.326 32.09L -1.31226e-06 35.862L -1.31226e-06 49.872L 4.604 54.284L 7.242 51.533L 3.812 48.246L 3.812 38.32L 12.137 34.547L 12.137 20.595L 3.812 15.002L 3.812 5.377L 6.87 3.019L 4.544 -7.32422e-07L 4.543 -7.32422e-07Z"/>
<path id="path26_fill" d="M 2.866 5.732C 4.44885 5.732 5.732 4.44885 5.732 2.866C 5.732 1.28315 4.44885 0 2.866 0C 1.28315 0 0 1.28315 0 2.866C 0 4.44885 1.28315 5.732 2.866 5.732Z"/>
<path id="path27_fill" d="M 1.26317 0.674168C -0.154833 1.76717 -0.418834 3.81017 0.674166 5.22817C 1.76717 6.64617 3.81017 6.91017 5.22817 5.81717C 6.64617 4.72417 6.91016 2.68117 5.81716 1.26317C 4.72416 -0.154832 2.68117 -0.418832 1.26317 0.674168C -0.154833 1.76717 2.68117 -0.418832 1.26317 0.674168ZM 4.76217 5.21417C 3.67717 6.05117 2.11417 5.84817 1.27717 4.76317C 0.440167 3.67817 0.643167 2.11517 1.72817 1.27817C 2.81317 0.441168 4.37617 0.644168 5.21317 1.72917C 6.05017 2.81417 5.84817 4.37717 4.76217 5.21417C 3.67717 6.05017 5.84817 4.37717 4.76217 5.21417Z"/>
<path id="path28_fill" d="M 2.866 5.732C 4.44885 5.732 5.732 4.44884 5.732 2.866C 5.732 1.28315 4.44885 0 2.866 0C 1.28315 0 0 1.28315 0 2.866C 0 4.44884 1.28315 5.732 2.866 5.732Z"/>
<path id="path29_fill" d="M 0.998862 5.58986C -0.294138 4.35086 -0.337138 2.29186 0.900862 0.998864C 2.13986 -0.294136 4.19886 -0.337136 5.49186 0.900864C 6.78486 2.13986 6.82786 4.19986 5.58986 5.49186C 4.35086 6.78486 2.29186 6.82786 0.998862 5.58986C -0.294138 4.35086 2.29186 6.82786 0.998862 5.58986ZM 4.96486 1.45086C 3.97586 0.50286 2.39986 0.535864 1.45186 1.52586C 0.503865 2.51486 0.536862 4.09086 1.52686 5.03886C 2.51686 5.98686 4.09186 5.95386 5.03986 4.96386C 5.98786 3.97486 5.95386 2.39886 4.96486 1.45086C 3.97586 0.50286 5.95386 2.39886 4.96486 1.45086Z"/>
<path id="path30_fill" d="M 7.319 1.2207e-07L 3.05176e-06 1.2207e-07L 3.05176e-06 3.811L 7.319 3.811"/>
<path id="path31_fill" d="M 2.866 5.732C 4.44885 5.732 5.732 4.44885 5.732 2.866C 5.732 1.28315 4.44885 0 2.866 0C 1.28315 0 0 1.28315 0 2.866C 0 4.44885 1.28315 5.732 2.866 5.732Z"/>
<path id="path32_fill" d="M 3.247 5.18799e-07C 5.037 5.18799e-07 6.494 1.457 6.494 3.247C 6.494 5.037 5.037 6.494 3.247 6.494C 1.457 6.494 -3.66211e-06 5.037 -3.66211e-06 3.247C -3.66211e-06 1.456 1.457 5.18799e-07 3.247 5.18799e-07C 5.037 5.18799e-07 1.457 5.18799e-07 3.247 5.18799e-07ZM 3.247 5.731C 4.617 5.731 5.732 4.617 5.732 3.246C 5.732 1.876 4.618 0.760998 3.247 0.760998C 1.877 0.760998 0.761997 1.875 0.761997 3.246C 0.761997 4.617 1.876 5.731 3.247 5.731C 4.617 5.731 1.876 5.731 3.247 5.731Z"/>
<path id="path33_fill" d="M 7.32 1.2207e-07L -5.18799e-07 1.2207e-07L -5.18799e-07 3.811L 7.32 3.811"/>
<path id="path34_fill" d="M 2.866 5.732C 4.44885 5.732 5.732 4.44885 5.732 2.866C 5.732 1.28315 4.44885 0 2.866 0C 1.28315 0 0 1.28315 0 2.866C 0 4.44885 1.28315 5.732 2.866 5.732Z"/>
<path id="path35_fill" d="M 3.247 5.18799e-07C 1.457 5.18799e-07 -6.71387e-07 1.457 -6.71387e-07 3.247C -6.71387e-07 5.037 1.457 6.494 3.247 6.494C 5.037 6.494 6.494 5.037 6.494 3.247C 6.494 1.456 5.038 5.18799e-07 3.247 5.18799e-07C 1.456 5.18799e-07 5.038 5.18799e-07 3.247 5.18799e-07ZM 3.247 5.731C 1.877 5.731 0.762 4.617 0.762 3.246C 0.762 1.876 1.876 0.760998 3.247 0.760998C 4.618 0.760998 5.732 1.875 5.732 3.246C 5.732 4.617 4.618 5.731 3.247 5.731C 1.876 5.731 4.618 5.731 3.247 5.731Z"/>
</defs>
</svg>
